{
  "entrypoint": "index.html",
  "shell": "src/my-app.html",
  "fragments": [
    "src/home.html",
    "src/my-view2.html",
    "src/my-view3.html",
    "src/my-view404.html"
  ],
  "sourceGlobs": [
   "src/**/*",
   "images/**/*",
   "bower.json"
  ],
  "includeDependencies": [
    "manifest.json",
    "bower_components/webcomponentsjs/webcomponents-lite.min.js",
    "bower_components/paper-item/paper-item.html",
    "bower_components/paper-item/paper-item-shared-styles.html",
    "bower_components/paper-listbox/paper-listbox.html",
    "bower_components/iron-menu-behavior/iron-menu-behavior.html",
    "bower_components/paper-item/paper-item-behavior.html",
    "bower_components/paper-toggle-button/paper-toggle-button.html",
    "bower_components/iron-flex-layout/iron-flex-layout-classes.html",
    "bower_components/iron-flex-layout/classes/iron-shadow-flex-layout.html",
    "bower_components/paper-styles/typography.html",
    "bower_components/iron-flex-layout/classes/iron-flex-layout.html",
    "bower_components/font-roboto/roboto.html",
    "bower_components/paper-behaviors/paper-checked-element-behavior.html",
    "bower_components/iron-checked-element-behavior/iron-checked-element-behavior.html",
    "bower_components/iron-form-element-behavior/iron-form-element-behavior.html",
    "bower_components/iron-validatable-behavior/iron-validatable-behavior.html"
  ]
}